{
    "tags": {
        "get_trending_tags": {
            "desc": {
                "en": "Returns a list of tags (tags) that include word combinations",
                "ru": "Возращает список меток(тэгов) включающие словосочетания",
                "de": "",
                "es": ""
            },
            "params": {
                "afterTag": {
                    "type": "String",
                    "desc": {
                        "en": "word combinations",
                        "ru": "словосочетания",
                        "de": "",
                        "es": ""
                    }
                },
                "limit": {
                    "type": "Integer",
                    "desc": {
                        "en": "number of results",
                        "ru": "количество результатов",
                        "de": "",
                        "es": ""
                    }
                }
            }
        },
        "get_tags_used_by_author": {
            "desc": {
                "en": "",
                "ru": "",
                "de": "",
                "es": ""
            },
            "params": {
                "author": {
                    "type": "String",
                    "desc": {
                        "en": "username",
                        "ru": "имя пользователя",
                        "de": "",
                        "es": ""
                    }
                }
            }
        },
        "get_discussions_by_trending": {
            "desc": {
                "en": "Displays a limited number of publications beginning with the most expensive of the award.",
                "ru": " Отображает ограниченное количество публикаций начиная с самой дорогой по вознаграждению.",
                "de": "",
                "es": ""
            },
            "desc2":{
                "en": "### Parameters: <br> ** limit: 0 ** - the number of returned records can not be greater than 100. Default is 0 <br> ** select_authors: ['', '' ...] ** - array contains Authors names <br> ** select_tags: ['', '', ...] ** - Tag list, messages without these tags are filtered by ** filter_tags: ['', '', ...] * * - Tag list, messages with these tags are filtered by ### Optional parameters: <br> ** start_author: '' ** - the author's name from which to start looking for <br> ** start_permlink: '' ** - Link of the publication to start looking for <br> ** parent_author: '' ** - the author's name of the discussion that started the discussion <br> ** parent_permlink: '' ** - a permanent link to the parent discussion ",
                "ru":"### Параметры:<br>**limit: 0** - количество возвращаемых записей не может быть больше 100. По умолчанию 0<br>**select_authors: ['',''...]** - массив содержит имена авторов<br>**select_tags: ['','',...]** - Список тегов, сообщения без этих тегов фильтруются<br>**filter_tags: ['','',...]** - Список тегов, сообщения с этими тегами фильтруются<br>### Не обязательные параметры:<br>**start_author: '' ** - имя автора с которого начинать искать<br>**start_permlink: '' ** - ссылка публикации с которой начинать искать<br>**parent_author: '' ** - имя автора стартовавшего дискуссию<br>**parent_permlink: '' ** - постоянная ссылка на родительскую дискуссию",
                "de": "",
                "es": ""
            },
            "params": {
                "query": {
                    "type": "Object",
                    "desc": {
                        "en": "",
                        "ru": "",
                        "de": "",
                        "es": ""
                    }
                }
            }
        },
        "get_discussions_by_trending30": {
            "desc": {
                "en": "Displays a limited number of publications on remuneration",
                "ru": "Отображает ограниченное количество публикаций по вознаграждению",
                "de": "",
                "es": ""
            },
            "params": {
                "query": {
                    "type": "Object",
                    "desc": {
                        "en": "",
                        "ru": "",
                        "de": "",
                        "es": ""
                    }
                }
            }
        },
        "get_discussions_by_created": {
            "desc": {
                "en": "Displays a limited number of publications, starting with the newest one.",
                "ru": "Отображает ограниченное количество публикаций начиная с самой новой.",
                "de": "",
                "es": ""
            },
            "params": {
                "query": {
                    "type": "Object",
                    "desc": {
                        "en": "",
                        "ru": "",
                        "de": "",
                        "es": ""
                    }
                }
            }
        },
        "get_discussions_by_active": {
            "desc": {
                "en": "Displays a limited number of entries in which there was activity since the newest.",
                "ru": "Отображает ограниченное количество записей в которых была активность начиная с самой новой.",
                "de": "",
                "es": ""
            },
            "params": {
                "query": {
                    "type": "Object",
                    "desc": {
                        "en": "",
                        "ru": "",
                        "de": "",
                        "es": ""
                    }
                }
            }
        },
        "get_discussions_by_cashout": {
            "desc": {
                "en": "Displays a limited number of publications, sorted by the time of payments",
                "ru": "Отображает ограниченное количество публикаций, отсортированных по времени выплат",
                "de": "",
                "es": ""
            },
            "params": {
                "query": {
                    "type": "Object",
                    "desc": {
                        "en": "",
                        "ru": "",
                        "de": "",
                        "es": ""
                    }
                }
            }
        },
        "get_discussions_by_payout": {
            "desc": {
                "en": "Displays a limited number of publications sorted by payments",
                "ru": "Отображает ограниченное количество публикаций , отсортированных по выплатам",
                "de": "",
                "es": ""
            },
            "params": {
                "query": {
                    "type": "Object",
                    "desc": {
                        "en": "",
                        "ru": "",
                        "de": "",
                        "es": ""
                    }
                }
            }
        },
        "get_discussions_by_votes": {
            "desc": {
                "en": "Displays a limited number of publications, sorted by votes.",
                "ru": "Отображает ограниченное количество публикаций, отсортированных по величине голосов.",
                "de": "",
                "es": ""
            },
            "params": {
                "query": {
                    "type": "Object",
                    "desc": {
                        "en": "",
                        "ru": "",
                        "de": "",
                        "es": ""
                    }
                }
            }
        },
        "get_discussions_by_children": {
            "desc": {
                "en": "Displays a limited number of publications sorted by the number of comments",
                "ru": "Отображает ограниченное количество публикаций, отсортированных по количеству комментариев",
                "de": "",
                "es": ""
            },
            "params": {
                "query": {
                    "type": "Object",
                    "desc": {
                        "en": "",
                        "ru": "",
                        "de": "",
                        "es": ""
                    }
                }
            }
        },
        "get_discussions_by_hot": {
            "desc": {
                "en": "Displays a limited number of publications, sorted by popularity.",
                "ru": "Отображает ограниченное количество публикаций, отсортированных по популярности.",
                "de": "",
                "es": ""
            },
            "params": {
                "query": {
                    "type": "Object",
                    "desc": {
                        "en": "",
                        "ru": "",
                        "de": "",
                        "es": ""
                    }
                }
            }
        },
        "get_discussions_by_feed": {
            "desc": {
                "en": "Displays a limited number of conversion records for a specific author",
                "ru": "Отображает ограниченное количество записей конверсий конкретного автора",
                "de": "",
                "es": ""
            },
            "params": {
                "query": {
                    "type": "Object",
                    "desc": {
                        "en": "",
                        "ru": "",
                        "de": "",
                        "es": ""
                    }
                }
            }
        },
        "get_discussions_by_blog": {
            "desc": {
                "en": "Displays a limited number of publications, from a blog of a specific author.",
                "ru": "Отображает ограниченное количество публикаций, из блога конкретного автора.",
                "de": "",
                "es": ""
            },
            "params": {
                "query": {
                    "type": "Object",
                    "desc": {
                        "en": "",
                        "ru": "",
                        "de": "",
                        "es": ""
                    }
                }
            }
        },
        "get_discussions_by_comments": {
            "desc": {
                "en": "Displays a limited number of publications, from the comments of a particular author.",
                "ru": "Отображает ограниченное количество публикаций, из комментариев конкретного автора.",
                "de": "",
                "es": ""
            },
            "params": {
                "query": {
                    "type": "Object",
                    "desc": {
                        "en": "",
                        "ru": "",
                        "de": "",
                        "es": ""
                    }
                }
            }
        },
        "get_discussions_by_promoted": {
            "desc": {
                "en": "Displays a limited number of publications sorted by an increased balance amount",
                "ru": "Отображает ограниченное количество публикаций, отсортированных с помощью увеличенной суммы баланса",
                "de": "",
                "es": ""
            },
            "params": {
                "query": {
                    "type": "Object",
                    "desc": {
                        "en": "",
                        "ru": "",
                        "de": "",
                        "es": ""
                    }
                }
            }
        }
        
    },
    "database_api": {
        "get_block_header": {
            "desc": {
                "en": "Returns block for given number",
                "ru": "Возвращает все данные о блоке",
                "de": "",
                "es": ""
            },
            "params": {
                "blockNum": {
                    "type": "Integer",
                    "desc": {
                        "en": "block number",
                        "ru": "номер блока",
                        "de": "",
                        "es": ""
                    }
                }
            }
        },
        "get_block": {
            "desc": {
                "en": "Returns block for given number",
                "ru": "Возвращает все данные о блоке включая транзакции",
                "de": "",
                "es": ""
            },
            "params": {
                "blockNum": {
                    "type": "Integer",
                    "desc": {
                        "en": "block number",
                        "ru": "номер блока",
                        "de": "",
                        "es": ""
                    }
                }
            }
        },
        "get_ops_in_block": {
            "desc": {
                "en": "Returns all operations in the block, if the parameter 'onlyVirtual' is true, then returns only the virtual operations",
                "ru": "Возвращает все операции в блоке, если параметр 'onlyVirtual' true то возвращает только виртуальные операции",
                "de": "",
                "es": ""
            },
            "params": {
                "blockNum": {
                    "type": "Integer",
                    "desc": {
                        "en": "block number",
                        "ru": "номер блока",
                        "de": "",
                        "es": ""
                    }
                },
                "onlyVirtual": {
                    "type": "Boolean",
                    "desc": {
                        "en": "show only virtual operations",
                        "ru": "показывать только виртуальные операции",
                        "de": "",
                        "es": ""
                    }
                }
            }
        },
        "get_state": {
            "desc": {
                "en": "Displays the current network status.",
                "ru": "Отображает текущее состояние сети.",
                "de": "",
                "es": ""
            },
            "params": {
                "path": {
                    "type": "String",
                    "desc": {
                        "en": "",
                        "ru": "",
                        "de": "",
                        "es": ""
                    }
                }
            }
        },
        "get_trending_categories": {
            "desc": {
                "en": "Returns sorted by value tags starting with a given or similar to it.",
                "ru": "Возвращает отсортированные по стоимости тэги начиная с заданного или близко к нему похожего.",
                "de": "",
                "es": ""
            },
            "params": {
                "after": {
                    "type": "String",
                    "desc": {
                        "en": "phrase for search, may be empty",
                        "ru": "словосочетание для поиска",
                        "de": "",
                        "es": ""
                    }
                },
                "limit": {
                    "type": "Integer",
                    "desc": {
                        "en": "number of results",
                        "ru": "количество результатов",
                        "de": "",
                        "es": ""
                    }
                }
            }
        },
        "get_best_categories": {
            "desc": {
                "en": "",
                "ru": "",
                "de": "",
                "es": ""
            },
            "params": {
                "after": {
                    "type": "String",
                    "desc": {
                        "en": "",
                        "ru": "",
                        "de": "",
                        "es": ""
                    }
                },
                "limit": {
                    "type": "Integer",
                    "desc": {
                        "en": "number of results",
                        "ru": "количество результатов",
                        "de": "",
                        "es": ""
                    }
                }
            }
        },
        "get_active_categories": {
            "desc": {
                "en": "",
                "ru": "",
                "de": "",
                "es": ""
            },
            "params": {
                "after": {
                    "type": "String",
                    "desc": {
                        "en": "",
                        "ru": "",
                        "de": "",
                        "es": ""
                    }
                },
                "limit": {
                    "type": "Integer",
                    "desc": {
                        "en": "number of results",
                        "ru": "количество результатов",
                        "de": "",
                        "es": ""
                    }
                }
            }
        },
        "get_recent_categories": {
            "desc": {
                "en": "",
                "ru": "",
                "de": "",
                "es": ""
            },
            "params": {
                "after": {
                    "type": "String",
                    "desc": {
                        "en": "",
                        "ru": "",
                        "de": "",
                        "es": ""
                    }
                },
                "limit": {
                    "type": "Integer",
                    "desc": {
                        "en": "number of results",
                        "ru": "количество результатов",
                        "de": "",
                        "es": ""
                    }
                }
            }
        },
        "get_config": {
            "desc": {
                "en": "Displays the current node configuration.",
                "ru": "Отображает текущую конфигурацию узла.",
                "de": "",
                "es": ""
            }
        },
        "get_dynamic_global_properties": {
            "desc": {
                "en": "Displays information about the current network status.",
                "ru": "Отображает информацию о текущем состоянии сети",
                "de": "",
                "es": ""
            }
        },
        "get_chain_properties": {
            "desc": {
                "en": "Displays the commission for creating the user, the maximum block size and the GBG interest rate.",
                "ru": "Отображает комиссию за создание пользователя, максимальный размер блока и процентную ставку GBG.",
                "de": "",
                "es": ""
            }
        },
        "get_feed_history": {
            "desc": {
                "en": "Displays the conversion history",
                "ru": "Отображает историю конверсий",
                "de": "",
                "es": ""
            }
        },
        "get_current_median_history_price": {
            "desc": {
                "en": "Displays the current median price of conversion",
                "ru": "Отображает текущую медианную цену конвертации",
                "de": "",
                "es": ""
            }
        },
        "get_witness_schedule": {
            "desc": {
                "en": "Displays the current delegation status.",
                "ru": "Отображает текущее состояние делегирования.",
                "de": "",
                "es": ""
            }
        },
        "get_hardfork_version": {
            "desc": {
                "en": "Displays the current version of the network.",
                "ru": "Отображает текущую версию сети.",
                "de": "",
                "es": ""
            }
        },
        "get_next_scheduled_hardfork": {
            "desc": {
                "en": "Displays the date and version of HardFork",
                "ru": "Отображает дату и версию HardFork",
                "de": "",
                "es": ""
            }
        },
        "get_accounts": {
            "desc": {
                "en": "Returns data for specified accounts",
                "ru": "Возращает данные по заданным аккаунтам",
                "de": "Liefert Daten für eingegebene Benutzer zurück",
                "es": ""
            },
            "params": {
                "accountNames": {
                    "type": "Array",
                    "desc": {
                        "en": "accounts(strings) in nested array",
                        "ru": "имена аккаунтов (строки) в виде массива",
                        "de": "Kontennamen als ein Array",
                        "es": ""
                    }
                }
            }
        },
        "get_account_references": {
            "desc": {
                "en": "",
                "ru": "",
                "de": "",
                "es": ""
            },
            "params": {
                "accountId": {
                    "type": "String",
                    "desc": {
                        "en": "",
                        "ru": "",
                        "de": "",
                        "es": ""
                    }
                }
            }
        },
        "lookup_account_names": {
            "desc": {
                "en": "Returns data for specified accounts",
                "ru": "Возращает данные по заданным аккаунтам",
                "de": "",
                "es": ""
            },
            "params": {
                "accountNames": {
                    "type": "Array",
                    "desc": {
                        "en": "accounts(strings) in nested array",
                        "ru": "имена аккаунтов (строки) в виде массива",
                        "de": "",
                        "es": ""
                    }
                }
            }
        },
        "lookup_accounts": {
            "desc": {
                "en": "Returns the names of users close to the phrase.",
                "ru": "Возвращает имена пользователей близких к шаблону.",
                "de": "",
                "es": ""
            },
            "params": {
                "lowerBoundName": {
                    "type": "String",
                    "desc": {
                        "en": "search template",
                        "ru": "шаблон поиска",
                        "de": "",
                        "es": ""
                    }
                },
                "limit": {
                    "type": "Integer",
                    "desc": {
                        "en": "number of results",
                        "ru": "количество результатов",
                        "de": "",
                        "es": ""
                    }
                }
            }
        },
        "get_account_count": {
            "desc": {
                "en": "Returns the number of registered users.",
                "ru": "Возвращает количество зарегестрированных пользователей.",
                "de": "",
                "es": ""
            }
        },
        "get_conversion_requests": {
            "desc": {
                "en": "Returns the current requests for conversion by the specified user",
                "ru": "Возвращает текущие запросы на конвертацию указанным пользователем",
                "de": "",
                "es": ""
            },
            "params": {
                "accountName": {
                    "type": "String",
                    "desc": {
                        "en": "username",
                        "ru": "имя пользователя",
                        "de": "",
                        "es": ""
                    }
                }
            }
        },
        "get_account_history": {
            "desc": {
                "en": "The history of all user actions on the network in the form of transactions. If from = -1, then are last {limit+1} history elements are shown. Parameter limit should be less or equals {from} (except from = -1). This is because elements preceding {from} are shown. ",
                "ru": "История всех действий пользователя в сети в виде транзакций. При from = -1 будут показаны последние {limit+1} элементов истории. Параметр limit не должен превышать from (исключение from = -1), так как показываются предшествующие {from} элементы истории.",
                "de": "",
                "es": ""
            },
            "params": {
                "account": {
                    "type": "String",
                    "desc": {
                        "en": "username",
                        "ru": "имя пользователя",
                        "de": "",
                        "es": ""
                    }
                },
                "from": {
                    "type": "Integer",
                    "desc": {
                        "en": "",
                        "ru": "",
                        "de": "",
                        "es": ""
                    }
                },
                "limit": {
                    "type": "Integer",
                    "desc": {
                        "en": "number of results",
                        "ru": "колличество результатов",
                        "de": "",
                        "es": ""
                    }
                }
            }
        },
        "get_owner_history": {
            "desc": {
                "en": "Displays the user name if he changed the ownership of the blockchain",
                "ru": "Отображает имя пользователя если он изменил право собственности на блокчейн",
                "de": "",
                "es": ""
            },
            "params": {
                "account": {
                    "type": "String",
                    "desc": {
                        "en": "username",
                        "ru": "имя пользователя",
                        "de": "",
                        "es": ""
                    }
                }
            }
        },
        "get_recovery_request": {
            "desc": {
                "en": "Returns true if the user is in recovery status.",
                "ru": "Возвращает true если пользователь в статусе на восстановление.",
                "de": "",
                "es": ""
            },
            "params": {
                "account": {
                    "type": "String",
                    "desc": {
                        "en": "username",
                        "ru": "имя пользователя",
                        "de": "",
                        "es": ""
                    }
                }
            }
        },
        "get_escrow": {
            "desc": {
                "en": "Returns the operations implemented through mediation.",
                "ru": "Возвращает операции реализованные с помощью посредничества.",
                "de": "",
                "es": ""
            },
            "params": {
                "from": {
                    "type": "String",
                    "desc": {
                        "en": "reseller Name",
                        "ru": "имя посредника",
                        "de": "",
                        "es": ""
                    }
                },
                "escrowId": {
                    "type": "Integer",
                    "desc": {
                        "en": "unique transaction number",
                        "ru": "уникальный номер операции",
                        "de": "",
                        "es": ""
                    }
                }
            }
        },
        "get_withdraw_routes": {
            "desc": {
                "en": "Returns all transfers to the user's account, depending on the type",
                "ru": "Возвращает все переводы на счету пользователя в зависимости от типа",
                "de": "",
                "es": ""
            },
            "params": {
                "account": {
                    "type": "String",
                    "desc": {
                        "en": "username",
                        "ru": "имя пользователя",
                        "de": "",
                        "es": ""
                    }
                },
                "withdrawRouteType": {
                    "type": "String",
                    "desc": {
                        "en": "the type of transfer can be (incoming, outgoing, all)",
                        "ru": "тип перевода может быть (incoming,outgoing,all)",
                        "de": "",
                        "es": ""
                    }
                }
            }
        },
        "get_account_bandwidth": {
            "desc": {
                "en": "Displays user actions based on type",
                "ru": "Отображает действия пользователя в зависимости от типа",
                "de": "",
                "es": ""
            },
            "params": {
                "account": {
                    "type": "String",
                    "desc": {
                        "en": "username",
                        "ru": "имя пользователя",
                        "de": "",
                        "es": ""
                    }
                },
                "bandwidthType": {
                    "type": "Integer",
                    "desc": {
                        "en": "The type is given by a number: 0-post, 1- forum, 2- market, 3- old_forum, 4- old_market",
                        "ru": "Тип задается числом: 0- post , 1- forum , 2- market , 3- old_forum , 4- old_market",
                        "de": "",
                        "es": ""
                    }
                }
            }
        },
        "get_savings_withdraw_from": {
            "desc": {
                "en": "Returns the output data from 'SAFE' for this user",
                "ru": "Возвращает данные о выводах из 'СЕЙФА' для данного пользователя",
                "de": "",
                "es": ""
            },
            "params": {
                "account": {
                    "type": "String",
                    "desc": {
                        "en": "username",
                        "ru": "имя пользователя",
                        "de": "",
                        "es": ""
                    }
                }
            }
        },
        "get_savings_withdraw_to": {
            "desc": {
                "en": "Returns the output data from 'SAFE' for this user",
                "ru": "Возвращает данные о выводах из 'СЕЙФА' для данного пользователя",
                "de": "",
                "es": ""
            },
            "params": {
                "account": {
                    "type": "String",
                    "desc": {
                        "en": "username",
                        "ru": "имя пользователя",
                        "de": "",
                        "es": ""
                    }
                }
            }
        },

        "get_liquidity_queue": {
            "desc": {
                "en": "Gets the current liquidity reward queue.",
                "ru": "Получает текущую очередность выплаты ликвидности.",
                "de": "",
                "es": ""
            },
            "params": {
                "startAccount": {
                    "type": "String",
                    "desc": {
                        "en": "username",
                        "ru": "имя пользователя",
                        "de": "",
                        "es": ""
                    }
                },
                "limit": {
                    "type": "Integer",
                    "desc": {
                        "en": "number of results",
                        "ru": "количество результатов",
                        "de": "",
                        "es": ""
                    }
                }
            }
        },
        "get_transaction_hex": {
            "desc": {
                "en": "Displays the HEX transaction string.",
                "ru": "Отображает HEX строку транзакции.",
                "de": "",
                "es": ""
            },
            "params": {
                "trx": {
                    "type": "Object",
                    "desc": {
                        "en": "signed transaction.",
                        "ru": "подписанная транзакция",
                        "de": "",
                        "es": ""
                    }
                }
            }
        },
        "get_transaction": {
            "desc": {
                "en": "Displays transaction details for the specified transaction ID.",
                "ru": "Отображает детали транзакции по заданному ID транзакции.",
                "de": "",
                "es": ""
            },
            "params": {
                "trxId": {
                    "type": "String",
                    "desc": {
                        "en": "id",
                        "ru": "id",
                        "de": "",
                        "es": ""
                    }
                }
            }
        },
        "get_required_signatures": {
            "desc": {
                "en": "This API will take a partially signed transaction and a set of public keys that the owner has the ability to sign for and return the minimal subset of public keys that should add signatures to the transaction.",
                "ru": "Возвращает список ключей которыми может быть подписанна указанная транзакция, на основании списка предоставленных ключей(второй параметр)",
                "de": "",
                "es": ""
            },
            "params": {
                "trx": {
                    "type": "Object",
                    "desc": {
                        "en": "signed transaction",
                        "ru": "подписанная транзакция",
                        "de": "",
                        "es": ""
                    }
                },
                "availableKeys": {
                    "type": "Array",
                    "desc": {
                        "en": "List of keys in the form of a string array",
                        "ru": "список ключей в виде строкового масива",
                        "de": "",
                        "es": ""
                    }
                }
            }
        },
        "get_potential_signatures": {
            "desc": {
                "en": "Displays the potential key for this transaction.",
                "ru": "Отображает потенциальный ключ для данной транзакции.",
                "de": "",
                "es": ""
            },
            "params": {
                "trx": {
                    "type": "Object",
                    "desc": {
                        "en": "signed transaction.",
                        "ru": "подписанная транзакция",
                        "de": "",
                        "es": ""
                    }
                }
            }
        },
        "verify_authority": {
            "desc": {
                "en": "Returns TRUE if the transaction is signed correctly",
                "ru": "Возвращает TRUE если транзакция подписана правильно",
                "de": "",
                "es": ""
            },
            "params": {
                "trx": {
                    "type": "Object",
                    "desc": {
                        "en": "signed transaction.",
                        "ru": "подписанная транзакция",
                        "de": "",
                        "es": ""
                    }
                }
            }
        },
        "verify_account_authority": {
            "desc": {
                "en": "Return true if the signers have enough authority to authorize an account",
                "ru": "Возвращает  true, если у пользователя есть достаточные полномочия для авторизации учетной записи",
                "de": "",
                "es": ""
            },
            "params": {
                "nameOrId": {
                    "type": "String",
                    "desc": {
                        "en": "username or id",
                        "ru": "имя пользователя или id",
                        "de": "",
                        "es": ""
                    }
                },
                "signers": {
                    "type": "Array",
                    "desc": {
                        "en": "List of keys in the form of a string array",
                        "ru": "список ключей в виде строкового масива",
                        "de": "",
                        "es": ""
                    }
                }
            }
        },
        "get_active_votes": {
            "desc": {
                "en": "Displays the list of users who voted for the specified entry",
                "ru": "Отображает список пользователей проголосовавших за указанную запись",
                "de": "",
                "es": ""
            },
            "params": {
                "author": {
                    "type": "String",
                    "desc": {
                        "en": "username (author of the publication)",
                        "ru": "имя пользователя (автора публикации)",
                        "de": "",
                        "es": ""
                    }
                },
                "permlink": {
                    "type": "String",
                    "desc": {
                        "en": "link to publication",
                        "ru": "ссылка на публикацию",
                        "de": "",
                        "es": ""
                    }
                }
            }
        },
        "get_account_votes": {
            "desc": {
                "en": "Displays all the voices that are displayed by the specified user",
                "ru": "Отображает все голоса которые выставлены указанным пользователем",
                "de": "",
                "es": ""
            },
            "params": {
                "voter": {
                    "type": "String",
                    "desc": {
                        "en": "username",
                        "ru": "имя пользователя",
                        "de": "",
                        "es": ""
                    }
                }
            }
        },
        "get_content": {
            "desc": {
                "en": "Gets information about the publication, with the exception of comments",
                "ru": "Получает информацию о публикации, за исключением комментариев",
                "de": "",
                "es": ""
            },
            "params": {
                "author": {
                    "type": "String",
                    "desc": {
                        "en": "username",
                        "ru": "имя пользователя",
                        "de": "",
                        "es": ""
                    }
                },
                "permlink": {
                    "type": "String",
                    "desc": {
                        "en": "link to publication",
                        "ru": "ссылка на публикацию",
                        "de": "",
                        "es": ""
                    }
                }
            }
        },
        "get_content_replies": {
            "desc": {
                "en": "Displays a list of all comments for the selected publication",
                "ru": "Отображает список всех комментариев для выбранной публикации",
                "de": "",
                "es": ""
            },
            "params": {
                "author": {
                    "type": "String",
                    "desc": {
                        "en": "username",
                        "ru": "имя пользователя",
                        "de": "",
                        "es": ""
                    }
                },
                "parentPermlink": {
                    "type": "String",
                    "desc": {
                        "en": "link to publication",
                        "ru": "ссылка на публикацию",
                        "de": "",
                        "es": ""
                    }
                }
            }
        },
        "get_discussions_by_author_before_date": {
            "desc": {
                "en": "Displays a limited number of user publications",
                "ru": "Отображает ограниченное количество публикации пользователя",
                "de": "",
                "es": ""
            },
            "params": {
                "author": {
                    "type": "String",
                    "desc": {
                        "en": "username",
                        "ru": "имя пользователя",
                        "de": "",
                        "es": ""
                    }
                },
                "startPermlink": {
                    "type": "String",
                    "desc": {
                        "en": "link to the publication from which to start filtering (may be empty)",
                        "ru": "ссылка на публикацию с которой начинать фильтровать (может быть пустым)",
                        "de": "",
                        "es": ""
                    }
                },
                "beforeDate": {
                    "type": "String",
                    "desc": {
                        "en": "date to which to filter",
                        "ru": "дата до которой фильтровать",
                        "de": "",
                        "es": ""
                    }
                },
                "limit": {
                    "type": "Integer",
                    "desc": {
                        "en": "number of results",
                        "ru": "количество результатов",
                        "de": "",
                        "es": ""
                    }
                }
            }
        },
        "get_replies_by_last_update": {
            "desc": {
                "en": "Return the active discussions with the highest cumulative pending payouts without respect to category, total  pending payout means the pending payout of all children as well.",
                "ru": "Верните активные обсуждения с самыми высокими совокупными ожидающими выплатами без учета категории, общая ожидаемая выплата означает ожидаемую всю выплату.",
                "de": "",
                "es": ""
            },
            "params": {
                "startAuthor": {
                    "type": "String",
                    "desc": {
                        "en": "username",
                        "ru": "имя пользователя",
                        "de": "",
                        "es": ""
                    }
                },
                "startPermlink": {
                    "type": "String",
                    "desc": {
                        "en": "link to publication",
                        "ru": "ссылка на публикацию",
                        "de": "",
                        "es": ""
                    }
                },
                "limit": {
                    "type": "Integer",
                    "desc": {
                        "en": "number of results",
                        "ru": "количество результатов",
                        "de": "",
                        "es": ""
                    }
                }
            }
        },
        "get_reward_fund": {
            "desc": {
                "en": "",
                "ru": "",
                "de": "",
                "es": ""
            },
            "params": {
                "name": {
                    "type": "String",
                    "desc": {
                        "en": "",
                        "ru": "",
                        "de": "",
                        "es": ""
                    }
                }
            }
        },
        "get_vesting_delegations": {
            "desc": {
                "en": "",
                "ru": "",
                "de": "",
                "es": ""
            },
            "params": {
                "account": {
                    "type": "String",
                    "desc": {
                        "en": "",
                        "ru": "",
                        "de": "",
                        "es": ""
                    }
                },
                "from": {
                    "type": "String",
                    "desc": {
                        "en": "",
                        "ru": "",
                        "de": "",
                        "es": ""
                    }
                },
                "limit": {
                    "type": "Integer",
                    "desc": {
                        "en": "number of results",
                        "ru": "количество результатов",
                        "de": "",
                        "es": ""
                    }
                }
            }
        }
    },
    "account_by_key_api": {
        "get_key_references": {
            "desc": {
                "en": "",
                "ru": "",
                "de": "",
                "es": ""
            },
            "params": {
                "key": {
                    "type": "String",
                    "desc": {
                        "en": "",
                        "ru": "",
                        "de": "",
                        "es": ""
                    }
                }
            }
        }
    },
    "login_api": {
        "login": {
            "desc": {
                "en": "Allows you to connect to the accounts on the network.",
                "ru": "Позволяет подключаться к учетным записям в сети.",
                "de": "",
                "es": ""
            },
            "params": {
                "username": {
                    "type": "String",
                    "desc": {
                        "en": "username",
                        "ru": "имя пользователя",
                        "de": "",
                        "es": ""
                    }
                },
                "password": {
                    "type": "String",
                    "desc": {
                        "en": "user password",
                        "ru": "пароль пользователя",
                        "de": "",
                        "es": ""
                    }
                }
            }
        },
        "get_api_by_name": {
            "desc": {
                "en": "Returns the unique API identifier by its name.",
                "ru": "Возвращает уникальный идентификатор API по его имени.",
                "de": "",
                "es": ""
            },
            "params": {
                "apiName": {
                    "type": "String",
                    "desc": {
                        "en": "API name (example login_api or follow_api)",
                        "ru": "имя API (пример login_api или follow_api)",
                        "de": "",
                        "es": ""
                    }
                }
            }
        },
        "get_version": {
            "desc": {
                "en": "Returns the version information for the components of the blockchain.",
                "ru": "Возвращает данные о версии компонентов блокчейн",
                "de": "",
                "es": ""
            }
        }
    },
    "follow_api": {
        "get_followers": {
            "desc": {
                "en": "Returns the list: Either all of the subscribers of the user are 'following'. Or, if the user name is specified, the list of matching subscribers is returned in the parameter 'startFollower'.",
                "ru": "Возвращает список: Либо всех подписчиков пользователя 'following'. Либо если указано имя пользователя в параметре 'startFollower' возвращается список совпадающих подписчиков.",
                "de": "",
                "es": ""
            },
            "params": {
                "following": {
                    "type": "String",
                    "desc": {
                        "en": "username",
                        "ru": "имя пользователя",
                        "de": "",
                        "es": ""
                    }
                },
                "startFollower": {
                    "type": "String",
                    "desc": {
                        "en": "username (can be empty)",
                        "ru": "имя пользователя (может быть пустым)",
                        "de": "",
                        "es": ""
                    }
                },
                "followType": {
                    "type": "String",
                    "desc": {
                        "en": "String values (undefined, blog, ignore)",
                        "ru": "строковые значения (undefined,blog,ignore)",
                        "de": "",
                        "es": ""
                    }
                },
                "limit": {
                    "type": "Integer",
                    "desc": {
                        "en": "number of results",
                        "ru": "количество результатов",
                        "de": "",
                        "es": ""
                    }
                }
            }
        },
        "get_following": {
            "desc": {
                "en": "",
                "ru": "",
                "de": "",
                "es": ""
            },
            "params": {
                "follower": {
                    "type": "String",
                    "desc": {
                        "en": "username",
                        "ru": "имя пользователя",
                        "de": "",
                        "es": ""
                    }
                },
                "startFollowing": {
                    "type": "String",
                    "desc": {
                        "en": "username",
                        "ru": "имя пользователя",
                        "de": "",
                        "es": ""
                    }
                },
                "followType": {
                    "type": "String",
                    "desc": {
                        "en": "String values (undefined, blog, ignore)",
                        "ru": "строковые значения (undefined,blog,ignore)",
                        "de": "",
                        "es": ""
                    }
                },
                "limit": {
                    "type": "Integer",
                    "desc": {
                        "en": "number of results",
                        "ru": "количество результатов",
                        "de": "",
                        "es": ""
                    }
                }
            }
        },
        "get_follow_count": {
            "desc": {
                "en": "Returns information about the number of subscribers and subscriptions of the specified user.",
                "ru": "Возвращает данные о количестве подписчиков и подписок указанного пользователя.",
                "de": "",
                "es": ""
            },
            "params": {
                "account": {
                    "type": "String",
                    "desc": {
                        "en": "username",
                        "ru": "имя пользователя",
                        "de": "",
                        "es": ""
                    }
                }
            }
        },
        "get_feed_entries": {
            "desc": {
                "en": "Returns brief information about records from the specified user's tape",
                "ru": "Возвращает краткие данные о записях из ленты указанного пользователя",
                "de": "",
                "es": ""
            },
            "params": {
                "account": {
                    "type": "String",
                    "desc": {
                        "en": "username",
                        "ru": "имя пользователя",
                        "de": "",
                        "es": ""
                    }
                },
                "entryId": {
                    "type": "Integer",
                    "desc": {
                        "en": "id records (if 0 then the most recent)",
                        "ru": "id записи (если 0 то самые свежие)",
                        "de": "",
                        "es": ""
                    }
                },
                "limit": {
                    "type": "Integer",
                    "desc": {
                        "en": "number of results",
                        "ru": "количество результатов",
                        "de": "",
                        "es": ""
                    }
                }
            }
        },
        "get_feed": {
            "desc": {
                "en": "Returns the complete record data from the specified user's tape.",
                "ru": "Возвращает полные данные о записях из ленты указанного пользователя.",
                "de": "",
                "es": ""
            },
            "params": {
                "account": {
                    "type": "String",
                    "desc": {
                        "en": "username",
                        "ru": "имя пользователя",
                        "de": "",
                        "es": ""
                    }
                },
                "entryId": {
                    "type": "Integer",
                    "desc": {
                        "en": "id records (if 0 then the most recent)",
                        "ru": "id записи (если 0 то самые свежие)",
                        "de": "",
                        "es": ""
                    }
                },
                "limit": {
                    "type": "Integer",
                    "desc": {
                        "en": "number of results",
                        "ru": "количество результатов",
                        "de": "",
                        "es": ""
                    }
                }
            }
        },
        "get_blog_entries": {
            "desc": {
                "en": "Returns brief information about records from the blog of the specified user.",
                "ru": "Возвращает краткие данные о записях из блога указанного пользователя.",
                "de": "",
                "es": ""
            },
            "params": {
                "account": {
                    "type": "String",
                    "desc": {
                        "en": "username",
                        "ru": "имя пользователя",
                        "de": "",
                        "es": ""
                    }
                },
                "entryId": {
                    "type": "Integer",
                    "desc": {
                        "en": "id records (if 0 then the most recent)",
                        "ru": "id записи (если 0 то самые свежие)",
                        "de": "",
                        "es": ""
                    }
                },
                "limit": {
                    "type": "Integer",
                    "desc": {
                        "en": "number of results",
                        "ru": "количество результатов",
                        "de": "",
                        "es": ""
                    }
                }
            }
        },
        "get_blog": {
            "desc": {
                "en": "Returns the complete record data from the blog of the specified user.",
                "ru": "Возвращает полные данные о записях из блога указанного пользователя.",
                "de": "",
                "es": ""
            },
            "params": {
                "account": {
                    "type": "String",
                    "desc": {
                        "en": "username",
                        "ru": "имя пользователя",
                        "de": "",
                        "es": ""
                    }
                },
                "entryId": {
                    "type": "Integer",
                    "desc": {
                        "en": "id records (if 0 then the most recent)",
                        "ru": "id записи (если 0 то самые свежие)",
                        "de": "",
                        "es": ""
                    }
                },
                "limit": {
                    "type": "Integer",
                    "desc": {
                        "en": "number of results",
                        "ru": "количество результатов",
                        "de": "",
                        "es": ""
                    }
                }
            }
        },
        "get_account_reputations": {
            "desc": {
                "en": "Returns data about the reputation of users filtered by template.",
                "ru": "Возвращает данные о репутации пользователей отфильтрованных по шаблону.",
                "de": "",
                "es": ""
            },
            "params": {
                "lowerBoundName": {
                    "type": "String",
                    "desc": {
                        "en": "search pattern",
                        "ru": "шаблон поиска",
                        "de": "",
                        "es": ""
                    }
                },
                "limit": {
                    "type": "Integer",
                    "desc": {
                        "en": "number of results",
                        "ru": "количество результатов",
                        "de": "",
                        "es": ""
                    }
                }
            }
        },
        "get_reblogged_by": {
            "desc": {
                "en": "Returns the list of users who either created the record or made it a repost.",
                "ru": "Возвращает список пользователей которые либо создали запись либо сделали её репост.",
                "de": "",
                "es": ""
            },
            "params": {
                "author": {
                    "type": "String",
                    "desc": {
                        "en": "username",
                        "ru": "имя пользователя",
                        "de": "",
                        "es": ""
                    }
                },
                "permlink": {
                    "type": "String",
                    "desc": {
                        "en": "link to publication",
                        "ru": "ссылка на публикацию",
                        "de": "",
                        "es": ""
                    }
                }
            }
        },
        "get_blog_authors": {
            "desc": {
                "en": "Returns the list of authors and the number of reposts of this author by the user.",
                "ru": "Возвращает список авторов и количество репостов этого автора пользователем.",
                "de": "",
                "es": ""
            },
            "params": {
                "blogAccount": {
                    "type": "String",
                    "desc": {
                        "en": "username",
                        "ru": "имя пользователя",
                        "de": "",
                        "es": ""
                    }
                }
            }
        }
    },
    "network_broadcast_api": {
        "broadcast_transaction": {
            "desc": {
                "en": "The transaction will be checked for validity in the local database prior to broadcasting. If it fails to apply locally, an error will be thrown and the transaction will not be broadcast.",
                "ru": "Транзакция будет проверяться на достоверность в локальной базе данных до начала трансляции. Если он не может применяться локально, будет вызвана ошибка, и транзакция не будет транслироваться.",
                "de": "",
                "es": ""
            },
            "params": {
                "trx": {
                    "type": "Object",
                    "desc": {
                        "en": "signed transaction",
                        "ru": "подписанная транзакция",
                        "de": "",
                        "es": ""
                    }
                }
            }
        },
        "broadcast_transaction_with_callback": {
            "desc": {
                "en": "this version of broadcast transaction registers a callback method that will be called when the transaction is included into a block.  The callback method includes the transaction id, block number, and transaction number in the block.",
                "ru": "Эта версия широковещательной транзакции регистрирует метод обратного вызова, который будет вызываться, когда транзакция включена в блок. Метод обратного вызова включает идентификатор транзакции, номер блока и номер транзакции в блоке.",
                "de": "",
                "es": ""
            },
            "params": {
                "confirmationCallback": {
                    "type": "String",
                    "desc": {
                        "en": "callback method",
                        "ru": "метод обратного вызова",
                        "de": "",
                        "es": ""
                    }
                },
                "trx": {
                    "type": "Object",
                    "desc": {
                        "en": "signed transaction",
                        "ru": "подписанная транзакция",
                        "de": "",
                        "es": ""
                    }
                }
            }
        },
        "broadcast_transaction_synchronous": {
            "desc": {
                "en": "This call will not return until the transaction is included in a block.",
                "ru": "Этот вызов не будет возвращен до тех пор, пока транзакция не будет включена в блок.",
                "de": "",
                "es": ""
            },
            "params": {
                "trx": {
                    "type": "Object",
                    "desc": {
                        "en": "signed transaction",
                        "ru": "подписанная транзакция",
                        "de": "",
                        "es": ""
                    }
                }
            }
        },
        "broadcast_block": {
            "desc": {
                "en": "",
                "ru": "",
                "de": "",
                "es": ""
            },
            "params": {
                "b": {
                    "type": "String",
                    "desc": {
                        "en": "",
                        "ru": "",
                        "de": "",
                        "es": ""
                    }
                }
            }
        },
        "set_max_block_age": {
            "desc": {
                "en": "",
                "ru": "",
                "de": "",
                "es": ""
            },
            "params": {
                "maxBlockAge": {
                    "type": "String",
                    "desc": {
                        "en": "",
                        "ru": "",
                        "de": "",
                        "es": ""
                    }
                }
            }
        }
    },
    "market_history": {
                    "get_open_orders": {
            "desc": {
                "en": "Displays a list of orders on the internal exchange for the purchase and sale on the network for the specified user.",
                "ru": "Отображает список заявок на внутренней бирже на покупку и продажу в сети для указанного пользователя.",
                "de": "",
                "es": ""
            },
            "params": {
                "owner": {
                    "type": "String",
                    "desc": {
                        "en": "username",
                        "ru": "имя пользователя",
                        "de": "",
                        "es": ""
                    }
                }
            }
        },        
        "get_ticker": {
            "desc": {
                "en": "Returns the market ticker for the internal market",
                "ru": "Возвращает рыночный тикет для внутреннего рынка ",
                "de": "",
                "es": ""
            }
        },
        "get_volume": {
            "desc": {
                "en": "Returns the market volume for the past 24 hours",
                "ru": "Возвращает объем рынка за последние 24 часа",
                "de": "",
                "es": ""
            }
        },
        "get_order_book": {
            "desc": {
                "en": "Displays a list of applications on the internal exchange for the purchase and sale of the network",
                "ru": "Отображает список заявок на внутренней бирже на покупку и продажу в сети",
                "de": "",
                "es": ""
            },
            "params": {
                "limit": {
                    "type": "Integer",
                    "desc": {
                        "en": "number of results",
                        "ru": "количество результатов",
                        "de": "",
                        "es": ""
                    }
                }
            }
        },
        "get_trade_history": {
            "desc": {
                "en": "Returns the trade history for the internal market.",
                "ru": "Возвращает историю торговли для внутреннего рынка",
                "de": "",
                "es": ""
            },
            "params": {
                "start": {
                    "type": "String/Integer",
                    "desc": {
                        "en": "trading start time",
                        "ru": "время начала торгов",
                        "de": "",
                        "es": ""
                    }
                },
                "end": {
                    "type": "String/Integer",
                    "desc": {
                        "en": "closing time",
                        "ru": "время окончания торгов",
                        "de": "",
                        "es": ""
                    }
                },
                "limit": {
                    "type": "Integer",
                    "desc": {
                        "en": "number of results",
                        "ru": "количество результатов",
                        "de": "",
                        "es": ""
                    }
                }
            }
        },
        "get_recent_trades": {
            "desc": {
                "en": "Returns the N most recent trades for the internal market.",
                "ru": "Возвращает N последних сделок для внутреннего рынка",
                "de": "",
                "es": ""
            },
            "params": {
                "limit": {
                    "type": "Integer",
                    "desc": {
                        "en": "number of results",
                        "ru": "количество результатов",
                        "de": "",
                        "es": ""
                    }
                }
            }
        },
        "get_market_history": {
            "desc": {
                "en": "Returns the market history for the internal market.",
                "ru": "Возвращает историю рынка для внутреннего рынка",
                "de": "",
                "es": ""
            },
            "params": {
                "bucket_seconds": {
                    "type": "Integer",
                    "desc": {
                        "en": "size of buckets",
                        "ru": "размер стакана(среза)",
                        "de": "",
                        "es": ""
                    }
                },
                "start": {
                    "type": "String/Integer",
                    "desc": {
                        "en": "trading start time",
                        "ru": "время начала торгов",
                        "de": "",
                        "es": ""
                    }
                },
                "end": {
                    "type": "String/Integer",
                    "desc": {
                        "en": "closing time",
                        "ru": "время окончания торгов",
                        "de": "",
                        "es": ""
                    }
                }
            }
        },
        "get_market_history_buckets": {
            "desc": {
                "en": "Returns the bucket seconds being tracked by the plugin",
                "ru": "Возвращает размер секунд стакана(среза), отслеживаемых плагином.",
                "de": "",
                "es": ""
            }
        }
    },
    "witness_api" : {
        "get_witnesses": {
            "desc": {
                "en": "Displays delegate data according to the specified ID",
                "ru": "Отображает данные о делегатах в соответствии с заданными ID",
                "de": "",
                "es": ""
            },
            "params": {
                "witnessIds": {
                    "type": "Array",
                    "desc": {
                        "en": "id",
                        "ru": "id",
                        "de": "",
                        "es": ""
                    }
                }
            }
        },
        "get_witness_by_account": {
            "desc": {
                "en": "Displays data about the delegate (if it is) according to the data from the request",
                "ru": "Отображает данные о делегате (если он им является) в соответствии с данными из запроса",
                "de": "",
                "es": ""
            },
            "params": {
                "accountName": {
                    "type": "String",
                    "desc": {
                        "en": "username",
                        "ru": "имя пользователя",
                        "de": "",
                        "es": ""
                    }
                }
            }
        },
        "get_witnesses_by_vote": {
            "desc": {
                "en": "Displays a limited list of delegates approving the vote.",
                "ru": "Отображает ограниченный список делегатов одобряющих голосование.",
                "de": "",
                "es": ""
            },
            "params": {
                "from": {
                    "type": "String",
                    "desc": {
                        "en": "username (If the first parameter is empty, the leading delegates are displayed, if the first parameter is specified, the list starts with the specified delegate.)",
                        "ru": "имя пользователя (Если первый параметр пуст то отображаются ведущие делегаты, если первый параметр указан то список начинается с указанного делегата.)",
                        "de": "",
                        "es": ""
                    }
                },
                "limit": {
                    "type": "Integer",
                    "desc": {
                        "en": "number of results",
                        "ru": "количество результатов",
                        "de": "",
                        "es": ""
                    }
                }
            }
        },
        "lookup_witness_accounts": {
            "desc": {
                "en": "Displays a limited list of users who have announced their intention to work as a delegate.",
                "ru": "Отображает ограниченный список пользователей, которые объявили о своем намерении работать в качестве делегата.",
                "de": "",
                "es": ""
            },
            "params": {
                "lowerBoundName": {
                    "type": "String",
                    "desc": {
                        "en": "search pattern",
                        "ru": "шаблон поиска",
                        "de": "",
                        "es": ""
                    }
                },
                "limit": {
                    "type": "Integer",
                    "desc": {
                        "en": "number of results",
                        "ru": "количество результатов",
                        "de": "",
                        "es": ""
                    }
                }
            }
        },
        "get_witness_count": {
            "desc": {
                "en": "Displays the number of delegates.",
                "ru": "Отображает количество делегатов.",
                "de": "",
                "es": ""
            }
        },
        "get_active_witnesses": {
            "desc": {
                "en": "Displays a list of all active delegates.",
                "ru": "Отображает список всех активных делегатов.",
                "de": "",
                "es": ""
            }
        },
        "get_miner_queue": {
            "desc": {
                "en": "Creates a list of the miners waiting to enter the DPOW chain to create the block.",
                "ru": "Создает список майнеров, ожидающих попасть в DPOW цепочку, чтобы создать блок.",
                "de": "",
                "es": ""
            }
        }
    }
}
